<mxfile host="app.diagrams.net" modified="2024-05-04T17:25:15.110Z" agent="Mozilla/5.0 (Windows NT 10.0; Win64; x64) AppleWebKit/537.36 (KHTML, like Gecko) Chrome/123.0.0.0 Safari/537.36 OPR/109.0.0.0 (Edition std-1)" etag="nxw5Doid96lvl_KjrROJ" version="24.3.1" type="google">
  <diagram name="Page-1" id="c1SQXXooqDkBuZwvEp0C">
    <mxGraphModel grid="1" page="1" gridSize="10" guides="1" tooltips="1" connect="1" arrows="1" fold="1" pageScale="1" pageWidth="827" pageHeight="1169" math="0" shadow="0">
      <root>
        <mxCell id="0" />
        <mxCell id="1" parent="0" />
        <mxCell id="Nv49pDI8AAc-Kg5uW-2C-1" value="catalogue.csv" style="rounded=1;whiteSpace=wrap;html=1;" vertex="1" parent="1">
          <mxGeometry x="1200" y="1040" width="120" height="40" as="geometry" />
        </mxCell>
        <mxCell id="Nv49pDI8AAc-Kg5uW-2C-2" value="immatriculations.csv" style="rounded=1;whiteSpace=wrap;html=1;" vertex="1" parent="1">
          <mxGeometry x="1200" y="1360" width="120" height="40" as="geometry" />
        </mxCell>
        <mxCell id="Nv49pDI8AAc-Kg5uW-2C-3" value="clients_9.csv" style="rounded=1;whiteSpace=wrap;html=1;" vertex="1" parent="1">
          <mxGeometry x="1197" y="960" width="123" height="40" as="geometry" />
        </mxCell>
        <mxCell id="Nv49pDI8AAc-Kg5uW-2C-4" value="marketing.csv" style="rounded=1;whiteSpace=wrap;html=1;" vertex="1" parent="1">
          <mxGeometry x="1200" y="1160" width="120" height="40" as="geometry" />
        </mxCell>
        <mxCell id="Nv49pDI8AAc-Kg5uW-2C-5" value="co2.csv" style="rounded=1;whiteSpace=wrap;html=1;" vertex="1" parent="1">
          <mxGeometry x="1200" y="1240" width="120" height="40" as="geometry" />
        </mxCell>
        <mxCell id="Nv49pDI8AAc-Kg5uW-2C-6" value="clients_0.csv" style="rounded=1;whiteSpace=wrap;html=1;" vertex="1" parent="1">
          <mxGeometry x="1200" y="840" width="120" height="40" as="geometry" />
        </mxCell>
        <mxCell id="Nv49pDI8AAc-Kg5uW-2C-7" value="MONGODB&lt;br&gt;clients" style="rounded=1;whiteSpace=wrap;html=1;" vertex="1" parent="1">
          <mxGeometry x="1600" y="890" width="120" height="60" as="geometry" />
        </mxCell>
        <mxCell id="Nv49pDI8AAc-Kg5uW-2C-8" value="ORACLE NOSQL&lt;br&gt;catalogue&lt;br&gt;marketing" style="rounded=1;whiteSpace=wrap;html=1;" vertex="1" parent="1">
          <mxGeometry x="1600" y="1090" width="120" height="60" as="geometry" />
        </mxCell>
        <mxCell id="Nv49pDI8AAc-Kg5uW-2C-9" value="HDFS&lt;br&gt;co2.csv&lt;br&gt;immatriculations.csv" style="rounded=1;whiteSpace=wrap;html=1;" vertex="1" parent="1">
          <mxGeometry x="1600" y="1289" width="120" height="60" as="geometry" />
        </mxCell>
        <mxCell id="Nv49pDI8AAc-Kg5uW-2C-10" value="Mongo Access Driver&lt;div&gt;&lt;div&gt;&lt;br&gt;&lt;/div&gt;&lt;/div&gt;" style="text;html=1;align=center;verticalAlign=middle;whiteSpace=wrap;rounded=0;" vertex="1" parent="1">
          <mxGeometry x="1755.25" y="878" width="160" height="40" as="geometry" />
        </mxCell>
        <mxCell id="Nv49pDI8AAc-Kg5uW-2C-11" value="Oracle Access Driver&lt;div&gt;&lt;div&gt;&lt;br&gt;&lt;/div&gt;&lt;/div&gt;" style="text;html=1;align=center;verticalAlign=middle;whiteSpace=wrap;rounded=0;" vertex="1" parent="1">
          <mxGeometry x="1755.25" y="1080" width="160" height="40" as="geometry" />
        </mxCell>
        <mxCell id="Nv49pDI8AAc-Kg5uW-2C-12" value="&lt;div&gt;&lt;div&gt;HDFS Access Driver&lt;/div&gt;&lt;/div&gt;" style="text;html=1;align=center;verticalAlign=middle;whiteSpace=wrap;rounded=0;" vertex="1" parent="1">
          <mxGeometry x="1755.25" y="1280" width="160" height="40" as="geometry" />
        </mxCell>
        <mxCell id="Nv49pDI8AAc-Kg5uW-2C-13" value="" style="shape=cylinder3;whiteSpace=wrap;html=1;boundedLbl=1;backgroundOutline=1;size=44;" vertex="1" parent="1">
          <mxGeometry x="1960" y="815" width="170" height="650" as="geometry" />
        </mxCell>
        <mxCell id="Nv49pDI8AAc-Kg5uW-2C-14" value="TABLE EXTERNE&lt;div&gt;catalogue_ext&lt;/div&gt;" style="rounded=0;whiteSpace=wrap;html=1;" vertex="1" parent="1">
          <mxGeometry x="1977.5" y="1050" width="135" height="60" as="geometry" />
        </mxCell>
        <mxCell id="Nv49pDI8AAc-Kg5uW-2C-15" value="&lt;span style=&quot;color: rgb(0, 0, 0); font-family: Helvetica; font-size: 12px; font-style: normal; font-variant-ligatures: normal; font-variant-caps: normal; font-weight: 400; letter-spacing: normal; orphans: 2; text-align: center; text-indent: 0px; text-transform: none; widows: 2; word-spacing: 0px; -webkit-text-stroke-width: 0px; white-space: normal; background-color: rgb(251, 251, 251); text-decoration-thickness: initial; text-decoration-style: initial; text-decoration-color: initial; display: inline !important; float: none;&quot;&gt;TABLE EXTERNE&lt;/span&gt;&lt;div style=&quot;forced-color-adjust: none; color: rgb(0, 0, 0); font-family: Helvetica; font-size: 12px; font-style: normal; font-variant-ligatures: normal; font-variant-caps: normal; font-weight: 400; letter-spacing: normal; orphans: 2; text-align: center; text-indent: 0px; text-transform: none; widows: 2; word-spacing: 0px; -webkit-text-stroke-width: 0px; white-space: normal; background-color: rgb(251, 251, 251); text-decoration-thickness: initial; text-decoration-style: initial; text-decoration-color: initial;&quot;&gt;marketing_ext&lt;/div&gt;" style="rounded=0;whiteSpace=wrap;html=1;" vertex="1" parent="1">
          <mxGeometry x="1977.5" y="1130" width="135" height="60" as="geometry" />
        </mxCell>
        <mxCell id="Nv49pDI8AAc-Kg5uW-2C-16" value="TABLE EXTERNE&lt;div&gt;co2_ext&lt;/div&gt;" style="rounded=0;whiteSpace=wrap;html=1;" vertex="1" parent="1">
          <mxGeometry x="1977.5" y="1251" width="135" height="60" as="geometry" />
        </mxCell>
        <mxCell id="Nv49pDI8AAc-Kg5uW-2C-17" value="TABLE EXTERNE&lt;div&gt;immatriculations_ext&lt;/div&gt;" style="rounded=0;whiteSpace=wrap;html=1;" vertex="1" parent="1">
          <mxGeometry x="1978.5" y="1330" width="135" height="60" as="geometry" />
        </mxCell>
        <mxCell id="Nv49pDI8AAc-Kg5uW-2C-18" value="" style="shape=flexArrow;endArrow=classic;startArrow=classic;html=1;rounded=0;width=37.5;endSize=7.666666666666666;" edge="1" parent="1">
          <mxGeometry width="100" height="100" relative="1" as="geometry">
            <mxPoint x="2198" y="1120.5" as="sourcePoint" />
            <mxPoint x="2358" y="1120.5" as="targetPoint" />
          </mxGeometry>
        </mxCell>
        <mxCell id="Nv49pDI8AAc-Kg5uW-2C-19" value="Utilisation du language python" style="rounded=0;whiteSpace=wrap;html=1;" vertex="1" parent="1">
          <mxGeometry x="2398" y="1084.5" width="120" height="60" as="geometry" />
        </mxCell>
        <mxCell id="Nv49pDI8AAc-Kg5uW-2C-20" value="" style="curved=1;endArrow=classic;html=1;rounded=0;exitX=1;exitY=0.5;exitDx=0;exitDy=0;" edge="1" parent="1" source="Nv49pDI8AAc-Kg5uW-2C-19">
          <mxGeometry width="50" height="50" relative="1" as="geometry">
            <mxPoint x="2542" y="1115.5" as="sourcePoint" />
            <mxPoint x="2592" y="1115.5" as="targetPoint" />
            <Array as="points">
              <mxPoint x="2592" y="1115.5" />
            </Array>
          </mxGeometry>
        </mxCell>
        <mxCell id="Nv49pDI8AAc-Kg5uW-2C-21" value="Resultat des donnees MongoDb" style="rounded=0;whiteSpace=wrap;html=1;" vertex="1" parent="1">
          <mxGeometry x="2598" y="1083.5" width="120" height="60" as="geometry" />
        </mxCell>
        <mxCell id="Nv49pDI8AAc-Kg5uW-2C-22" value="&lt;div&gt;&lt;div&gt;&lt;br&gt;&lt;/div&gt;&lt;/div&gt;" style="edgeLabel;html=1;align=center;verticalAlign=middle;resizable=0;points=[];" connectable="0" vertex="1" parent="1">
          <mxGeometry x="2046" y="878" as="geometry">
            <mxPoint x="-6" y="1" as="offset" />
          </mxGeometry>
        </mxCell>
        <mxCell id="Nv49pDI8AAc-Kg5uW-2C-23" value="" style="endArrow=block;html=1;rounded=0;exitX=1;exitY=0.5;exitDx=0;exitDy=0;endFill=1;entryX=-0.009;entryY=0.16;entryDx=0;entryDy=0;entryPerimeter=0;" edge="1" parent="1" source="Nv49pDI8AAc-Kg5uW-2C-7" target="Nv49pDI8AAc-Kg5uW-2C-13">
          <mxGeometry width="50" height="50" relative="1" as="geometry">
            <mxPoint x="1693" y="939" as="sourcePoint" />
            <mxPoint x="1953" y="944" as="targetPoint" />
          </mxGeometry>
        </mxCell>
        <mxCell id="Nv49pDI8AAc-Kg5uW-2C-24" value="" style="endArrow=block;html=1;rounded=0;exitX=1;exitY=0.5;exitDx=0;exitDy=0;endFill=1;entryX=-0.009;entryY=0.468;entryDx=0;entryDy=0;entryPerimeter=0;" edge="1" parent="1" source="Nv49pDI8AAc-Kg5uW-2C-8" target="Nv49pDI8AAc-Kg5uW-2C-13">
          <mxGeometry width="50" height="50" relative="1" as="geometry">
            <mxPoint x="1685" y="1169" as="sourcePoint" />
            <mxPoint x="1953" y="1140" as="targetPoint" />
          </mxGeometry>
        </mxCell>
        <mxCell id="Nv49pDI8AAc-Kg5uW-2C-25" value="" style="endArrow=block;html=1;rounded=0;exitX=1;exitY=0.5;exitDx=0;exitDy=0;endFill=1;entryX=-0.001;entryY=0.776;entryDx=0;entryDy=0;entryPerimeter=0;" edge="1" parent="1" source="Nv49pDI8AAc-Kg5uW-2C-9" target="Nv49pDI8AAc-Kg5uW-2C-13">
          <mxGeometry width="50" height="50" relative="1" as="geometry">
            <mxPoint x="1682" y="1350" as="sourcePoint" />
            <mxPoint x="1963" y="1340" as="targetPoint" />
          </mxGeometry>
        </mxCell>
        <mxCell id="Nv49pDI8AAc-Kg5uW-2C-26" value="&lt;div align=&quot;center&quot;&gt;Programme java pour transformation&lt;/div&gt;&lt;div align=&quot;center&quot;&gt;des données et alimentation&amp;nbsp;&lt;br&gt;&lt;/div&gt;" style="text;whiteSpace=wrap;html=1;align=center;verticalAlign=middle;" vertex="1" parent="1">
          <mxGeometry x="1360" y="1070" width="240" height="40" as="geometry" />
        </mxCell>
        <mxCell id="Nv49pDI8AAc-Kg5uW-2C-27" value="PyHive" style="text;html=1;align=center;verticalAlign=middle;resizable=0;points=[];autosize=1;strokeColor=none;fillColor=none;" vertex="1" parent="1">
          <mxGeometry x="2252.5" y="1065.5" width="60" height="30" as="geometry" />
        </mxCell>
        <mxCell id="Nv49pDI8AAc-Kg5uW-2C-28" value="&lt;div align=&quot;center&quot;&gt;Hadoop&lt;/div&gt;" style="text;whiteSpace=wrap;html=1;align=center;verticalAlign=middle;" vertex="1" parent="1">
          <mxGeometry x="1360" y="1280" width="240" height="40" as="geometry" />
        </mxCell>
        <mxCell id="Nv49pDI8AAc-Kg5uW-2C-29" value="" style="endArrow=block;html=1;rounded=0;exitX=1;exitY=0.5;exitDx=0;exitDy=0;entryX=0;entryY=0.5;entryDx=0;entryDy=0;endFill=1;" edge="1" parent="1" source="Nv49pDI8AAc-Kg5uW-2C-1" target="Nv49pDI8AAc-Kg5uW-2C-8">
          <mxGeometry width="50" height="50" relative="1" as="geometry">
            <mxPoint x="1804.5" y="1150" as="sourcePoint" />
            <mxPoint x="1854.5" y="1100" as="targetPoint" />
            <Array as="points">
              <mxPoint x="1360" y="1060" />
              <mxPoint x="1360" y="1120" />
            </Array>
          </mxGeometry>
        </mxCell>
        <mxCell id="Nv49pDI8AAc-Kg5uW-2C-30" value="" style="endArrow=none;html=1;rounded=0;exitX=1;exitY=0.5;exitDx=0;exitDy=0;fontStyle=1" edge="1" parent="1" source="Nv49pDI8AAc-Kg5uW-2C-4">
          <mxGeometry width="50" height="50" relative="1" as="geometry">
            <mxPoint x="1804.5" y="1150" as="sourcePoint" />
            <mxPoint x="1360" y="1120" as="targetPoint" />
            <Array as="points">
              <mxPoint x="1360" y="1180" />
            </Array>
          </mxGeometry>
        </mxCell>
        <mxCell id="Nv49pDI8AAc-Kg5uW-2C-31" value="" style="endArrow=block;html=1;rounded=0;exitX=1;exitY=0.5;exitDx=0;exitDy=0;endFill=1;entryX=0;entryY=0.5;entryDx=0;entryDy=0;" edge="1" parent="1" source="Nv49pDI8AAc-Kg5uW-2C-5" target="Nv49pDI8AAc-Kg5uW-2C-9">
          <mxGeometry width="50" height="50" relative="1" as="geometry">
            <mxPoint x="1311" y="1280" as="sourcePoint" />
            <mxPoint x="1554.5" y="1342" as="targetPoint" />
            <Array as="points">
              <mxPoint x="1360" y="1260" />
              <mxPoint x="1360" y="1320" />
            </Array>
          </mxGeometry>
        </mxCell>
        <mxCell id="Nv49pDI8AAc-Kg5uW-2C-32" value="" style="endArrow=none;html=1;rounded=0;exitX=1;exitY=0.5;exitDx=0;exitDy=0;" edge="1" parent="1" source="Nv49pDI8AAc-Kg5uW-2C-2">
          <mxGeometry width="50" height="50" relative="1" as="geometry">
            <mxPoint x="1311.5" y="1473" as="sourcePoint" />
            <mxPoint x="1360" y="1320" as="targetPoint" />
            <Array as="points">
              <mxPoint x="1360" y="1380" />
            </Array>
          </mxGeometry>
        </mxCell>
        <mxCell id="Nv49pDI8AAc-Kg5uW-2C-33" value="" style="endArrow=block;html=1;rounded=0;exitX=1;exitY=0.5;exitDx=0;exitDy=0;endFill=1;entryX=0;entryY=0.5;entryDx=0;entryDy=0;" edge="1" parent="1" source="Nv49pDI8AAc-Kg5uW-2C-6" target="Nv49pDI8AAc-Kg5uW-2C-7">
          <mxGeometry width="50" height="50" relative="1" as="geometry">
            <mxPoint x="1309.5" y="878" as="sourcePoint" />
            <mxPoint x="1592" y="920" as="targetPoint" />
            <Array as="points">
              <mxPoint x="1360" y="860" />
              <mxPoint x="1360" y="920" />
            </Array>
          </mxGeometry>
        </mxCell>
        <mxCell id="Nv49pDI8AAc-Kg5uW-2C-34" value="" style="endArrow=none;html=1;rounded=0;exitX=1;exitY=0.5;exitDx=0;exitDy=0;" edge="1" parent="1" source="Nv49pDI8AAc-Kg5uW-2C-3">
          <mxGeometry width="50" height="50" relative="1" as="geometry">
            <mxPoint x="1313" y="1000" as="sourcePoint" />
            <mxPoint x="1360" y="920" as="targetPoint" />
            <Array as="points">
              <mxPoint x="1360" y="980" />
              <mxPoint x="1360" y="960" />
            </Array>
          </mxGeometry>
        </mxCell>
        <mxCell id="Nv49pDI8AAc-Kg5uW-2C-35" value="TABLE EXTERNE&lt;div&gt;clients_ext&lt;/div&gt;" style="rounded=0;whiteSpace=wrap;html=1;" vertex="1" parent="1">
          <mxGeometry x="1977.5" y="890" width="135" height="60" as="geometry" />
        </mxCell>
        <mxCell id="Nv49pDI8AAc-Kg5uW-2C-36" value="&lt;div style=&quot;&quot;&gt;&lt;span style=&quot;text-wrap: nowrap; background-color: initial;&quot;&gt;MongoImport&lt;/span&gt;&lt;/div&gt;" style="text;whiteSpace=wrap;html=1;align=center;verticalAlign=middle;" vertex="1" parent="1">
          <mxGeometry x="1360" y="880" width="240" height="40" as="geometry" />
        </mxCell>
        <mxCell id="Nv49pDI8AAc-Kg5uW-2C-37" value="HIVEQL&lt;br&gt;DATALAKE&lt;div&gt;&lt;br&gt;&lt;div&gt;&lt;br style=&quot;font-size: 11px; text-wrap: nowrap; background-color: rgb(255, 255, 255);&quot;&gt;&lt;/div&gt;&lt;/div&gt;" style="text;html=1;align=center;verticalAlign=middle;whiteSpace=wrap;rounded=0;" vertex="1" parent="1">
          <mxGeometry x="1970" y="840" width="150" height="60" as="geometry" />
        </mxCell>
      </root>
    </mxGraphModel>
  </diagram>
</mxfile>
